<?xml version="1.0" encoding="utf-8"  standalone="no"?>
<!DOCTYPE svg PUBLIC "-//W3C//DTD SVG 1.1//EN" 
 "http://www.w3.org/Graphics/SVG/1.1/DTD/svg11.dtd">
<svg 
 width="600" height="480" 
 viewBox="0 0 600 480"
 xmlns="http://www.w3.org/2000/svg"
 xmlns:xlink="http://www.w3.org/1999/xlink"
>

<title>Gnuplot</title>
<desc>Produced by GNUPLOT 4.6 patchlevel 1 </desc>

<g id="gnuplot_canvas">

<rect x="0" y="0" width="600" height="480" fill="none"/>
<defs>

	<circle id='gpDot' r='0.5' stroke-width='0.5'/>
	<path id='gpPt0' stroke-width='0.222' stroke='currentColor' d='M-1,0 h2 M0,-1 v2'/>
	<path id='gpPt1' stroke-width='0.222' stroke='currentColor' d='M-1,-1 L1,1 M1,-1 L-1,1'/>
	<path id='gpPt2' stroke-width='0.222' stroke='currentColor' d='M-1,0 L1,0 M0,-1 L0,1 M-1,-1 L1,1 M-1,1 L1,-1'/>
	<rect id='gpPt3' stroke-width='0.222' stroke='currentColor' x='-1' y='-1' width='2' height='2'/>
	<rect id='gpPt4' stroke-width='0.222' stroke='currentColor' fill='currentColor' x='-1' y='-1' width='2' height='2'/>
	<circle id='gpPt5' stroke-width='0.222' stroke='currentColor' cx='0' cy='0' r='1'/>
	<use xlink:href='#gpPt5' id='gpPt6' fill='currentColor' stroke='none'/>
	<path id='gpPt7' stroke-width='0.222' stroke='currentColor' d='M0,-1.33 L-1.33,0.67 L1.33,0.67 z'/>
	<use xlink:href='#gpPt7' id='gpPt8' fill='currentColor' stroke='none'/>
	<use xlink:href='#gpPt7' id='gpPt9' stroke='currentColor' transform='rotate(180)'/>
	<use xlink:href='#gpPt9' id='gpPt10' fill='currentColor' stroke='none'/>
	<use xlink:href='#gpPt3' id='gpPt11' stroke='currentColor' transform='rotate(45)'/>
	<use xlink:href='#gpPt11' id='gpPt12' fill='currentColor' stroke='none'/>
</defs>
<g style="fill:none; color:white; stroke:currentColor; stroke-width:1.00; stroke-linecap:butt; stroke-linejoin:miter">
</g>
<g style="fill:none; color:black; stroke:currentColor; stroke-width:1.00; stroke-linecap:butt; stroke-linejoin:miter">
</g>
<g style="fill:none; color:gray; stroke:currentColor; stroke-width:1.00; stroke-linecap:butt; stroke-linejoin:miter">
	<path class="gridline"  d='M63.6,422.4 L575.0,422.4  h0.01'/></g>
<g style="fill:none; color:black; stroke:currentColor; stroke-width:1.00; stroke-linecap:butt; stroke-linejoin:miter">
	<path  d='M63.6,422.4 L72.6,422.4 M575.0,422.4 L566.0,422.4  h0.01'/>	<g transform="translate(55.3,426.9)" style="stroke:none; fill:black; font-family:Times-Roman; font-size:20.00pt; text-anchor:end">
		<text>-40</text>
	</g>
</g>
<g style="fill:none; color:gray; stroke:currentColor; stroke-width:1.00; stroke-linecap:butt; stroke-linejoin:miter">
	<path class="gridline"  d='M63.6,371.7 L575.0,371.7  h0.01'/></g>
<g style="fill:none; color:black; stroke:currentColor; stroke-width:1.00; stroke-linecap:butt; stroke-linejoin:miter">
	<path  d='M63.6,371.7 L72.6,371.7 M575.0,371.7 L566.0,371.7  h0.01'/>	<g transform="translate(55.3,376.2)" style="stroke:none; fill:black; font-family:Times-Roman; font-size:20.00pt; text-anchor:end">
		<text>-35</text>
	</g>
</g>
<g style="fill:none; color:gray; stroke:currentColor; stroke-width:1.00; stroke-linecap:butt; stroke-linejoin:miter">
	<path class="gridline"  d='M63.6,321.0 L575.0,321.0  h0.01'/></g>
<g style="fill:none; color:black; stroke:currentColor; stroke-width:1.00; stroke-linecap:butt; stroke-linejoin:miter">
	<path  d='M63.6,321.0 L72.6,321.0 M575.0,321.0 L566.0,321.0  h0.01'/>	<g transform="translate(55.3,325.5)" style="stroke:none; fill:black; font-family:Times-Roman; font-size:20.00pt; text-anchor:end">
		<text>-30</text>
	</g>
</g>
<g style="fill:none; color:gray; stroke:currentColor; stroke-width:1.00; stroke-linecap:butt; stroke-linejoin:miter">
	<path class="gridline"  d='M63.6,270.3 L575.0,270.3  h0.01'/></g>
<g style="fill:none; color:black; stroke:currentColor; stroke-width:1.00; stroke-linecap:butt; stroke-linejoin:miter">
	<path  d='M63.6,270.3 L72.6,270.3 M575.0,270.3 L566.0,270.3  h0.01'/>	<g transform="translate(55.3,274.8)" style="stroke:none; fill:black; font-family:Times-Roman; font-size:20.00pt; text-anchor:end">
		<text>-25</text>
	</g>
</g>
<g style="fill:none; color:gray; stroke:currentColor; stroke-width:1.00; stroke-linecap:butt; stroke-linejoin:miter">
	<path class="gridline"  d='M63.6,219.5 L575.0,219.5  h0.01'/></g>
<g style="fill:none; color:black; stroke:currentColor; stroke-width:1.00; stroke-linecap:butt; stroke-linejoin:miter">
	<path  d='M63.6,219.5 L72.6,219.5 M575.0,219.5 L566.0,219.5  h0.01'/>	<g transform="translate(55.3,224.0)" style="stroke:none; fill:black; font-family:Times-Roman; font-size:20.00pt; text-anchor:end">
		<text>-20</text>
	</g>
</g>
<g style="fill:none; color:gray; stroke:currentColor; stroke-width:1.00; stroke-linecap:butt; stroke-linejoin:miter">
	<path class="gridline"  d='M63.6,168.8 L575.0,168.8  h0.01'/></g>
<g style="fill:none; color:black; stroke:currentColor; stroke-width:1.00; stroke-linecap:butt; stroke-linejoin:miter">
	<path  d='M63.6,168.8 L72.6,168.8 M575.0,168.8 L566.0,168.8  h0.01'/>	<g transform="translate(55.3,173.3)" style="stroke:none; fill:black; font-family:Times-Roman; font-size:20.00pt; text-anchor:end">
		<text>-15</text>
	</g>
</g>
<g style="fill:none; color:gray; stroke:currentColor; stroke-width:1.00; stroke-linecap:butt; stroke-linejoin:miter">
	<path class="gridline"  d='M63.6,118.1 L575.0,118.1  h0.01'/></g>
<g style="fill:none; color:black; stroke:currentColor; stroke-width:1.00; stroke-linecap:butt; stroke-linejoin:miter">
	<path  d='M63.6,118.1 L72.6,118.1 M575.0,118.1 L566.0,118.1  h0.01'/>	<g transform="translate(55.3,122.6)" style="stroke:none; fill:black; font-family:Times-Roman; font-size:20.00pt; text-anchor:end">
		<text>-10</text>
	</g>
</g>
<g style="fill:none; color:gray; stroke:currentColor; stroke-width:1.00; stroke-linecap:butt; stroke-linejoin:miter">
	<path class="gridline"  d='M63.6,67.4 L575.0,67.4  h0.01'/></g>
<g style="fill:none; color:black; stroke:currentColor; stroke-width:1.00; stroke-linecap:butt; stroke-linejoin:miter">
	<path  d='M63.6,67.4 L72.6,67.4 M575.0,67.4 L566.0,67.4  h0.01'/>	<g transform="translate(55.3,71.9)" style="stroke:none; fill:black; font-family:Times-Roman; font-size:20.00pt; text-anchor:end">
		<text>-5</text>
	</g>
</g>
<g style="fill:none; color:gray; stroke:currentColor; stroke-width:1.00; stroke-linecap:butt; stroke-linejoin:miter">
	<path class="gridline"  d='M63.6,16.7 L575.0,16.7  h0.01'/></g>
<g style="fill:none; color:black; stroke:currentColor; stroke-width:1.00; stroke-linecap:butt; stroke-linejoin:miter">
	<path  d='M63.6,16.7 L72.6,16.7 M575.0,16.7 L566.0,16.7  h0.01'/>	<g transform="translate(55.3,21.2)" style="stroke:none; fill:black; font-family:Times-Roman; font-size:20.00pt; text-anchor:end">
		<text> 0</text>
	</g>
</g>
<g style="fill:none; color:gray; stroke:currentColor; stroke-width:1.00; stroke-linecap:butt; stroke-linejoin:miter">
	<path class="gridline"  d='M63.6,422.4 L63.6,16.7  h0.01'/></g>
<g style="fill:none; color:black; stroke:currentColor; stroke-width:1.00; stroke-linecap:butt; stroke-linejoin:miter">
	<path  d='M63.6,422.4 L63.6,413.4 M63.6,16.7 L63.6,25.7  h0.01'/>	<g transform="translate(63.6,444.9)" style="stroke:none; fill:black; font-family:Times-Roman; font-size:20.00pt; text-anchor:middle">
		<text> 0</text>
	</g>
</g>
<g style="fill:none; color:gray; stroke:currentColor; stroke-width:1.00; stroke-linecap:butt; stroke-linejoin:miter">
	<path class="gridline"  d='M148.8,422.4 L148.8,16.7  h0.01'/></g>
<g style="fill:none; color:black; stroke:currentColor; stroke-width:1.00; stroke-linecap:butt; stroke-linejoin:miter">
	<path  d='M148.8,422.4 L148.8,413.4 M148.8,16.7 L148.8,25.7  h0.01'/>	<g transform="translate(148.8,444.9)" style="stroke:none; fill:black; font-family:Times-Roman; font-size:20.00pt; text-anchor:middle">
		<text> 5</text>
	</g>
</g>
<g style="fill:none; color:gray; stroke:currentColor; stroke-width:1.00; stroke-linecap:butt; stroke-linejoin:miter">
	<path class="gridline"  d='M234.1,422.4 L234.1,16.7  h0.01'/></g>
<g style="fill:none; color:black; stroke:currentColor; stroke-width:1.00; stroke-linecap:butt; stroke-linejoin:miter">
	<path  d='M234.1,422.4 L234.1,413.4 M234.1,16.7 L234.1,25.7  h0.01'/>	<g transform="translate(234.1,444.9)" style="stroke:none; fill:black; font-family:Times-Roman; font-size:20.00pt; text-anchor:middle">
		<text> 10</text>
	</g>
</g>
<g style="fill:none; color:gray; stroke:currentColor; stroke-width:1.00; stroke-linecap:butt; stroke-linejoin:miter">
	<path class="gridline"  d='M319.3,422.4 L319.3,16.7  h0.01'/></g>
<g style="fill:none; color:black; stroke:currentColor; stroke-width:1.00; stroke-linecap:butt; stroke-linejoin:miter">
	<path  d='M319.3,422.4 L319.3,413.4 M319.3,16.7 L319.3,25.7  h0.01'/>	<g transform="translate(319.3,444.9)" style="stroke:none; fill:black; font-family:Times-Roman; font-size:20.00pt; text-anchor:middle">
		<text> 15</text>
	</g>
</g>
<g style="fill:none; color:gray; stroke:currentColor; stroke-width:1.00; stroke-linecap:butt; stroke-linejoin:miter">
	<path class="gridline"  d='M404.5,422.4 L404.5,16.7  h0.01'/></g>
<g style="fill:none; color:black; stroke:currentColor; stroke-width:1.00; stroke-linecap:butt; stroke-linejoin:miter">
	<path  d='M404.5,422.4 L404.5,413.4 M404.5,16.7 L404.5,25.7  h0.01'/>	<g transform="translate(404.5,444.9)" style="stroke:none; fill:black; font-family:Times-Roman; font-size:20.00pt; text-anchor:middle">
		<text> 20</text>
	</g>
</g>
<g style="fill:none; color:gray; stroke:currentColor; stroke-width:1.00; stroke-linecap:butt; stroke-linejoin:miter">
	<path class="gridline"  d='M489.8,422.4 L489.8,16.7  h0.01'/></g>
<g style="fill:none; color:black; stroke:currentColor; stroke-width:1.00; stroke-linecap:butt; stroke-linejoin:miter">
	<path  d='M489.8,422.4 L489.8,413.4 M489.8,16.7 L489.8,25.7  h0.01'/>	<g transform="translate(489.8,444.9)" style="stroke:none; fill:black; font-family:Times-Roman; font-size:20.00pt; text-anchor:middle">
		<text> 25</text>
	</g>
</g>
<g style="fill:none; color:gray; stroke:currentColor; stroke-width:1.00; stroke-linecap:butt; stroke-linejoin:miter">
	<path class="gridline"  d='M575.0,422.4 L575.0,16.7  h0.01'/></g>
<g style="fill:none; color:black; stroke:currentColor; stroke-width:1.00; stroke-linecap:butt; stroke-linejoin:miter">
	<path  d='M575.0,422.4 L575.0,413.4 M575.0,16.7 L575.0,25.7  h0.01'/>	<g transform="translate(575.0,444.9)" style="stroke:none; fill:black; font-family:Times-Roman; font-size:20.00pt; text-anchor:middle">
		<text> 30</text>
	</g>
	<path  d='M63.6,16.7 L63.6,422.4 L575.0,422.4 L575.0,16.7 L63.6,16.7 Z  h0.01'/>	<g transform="translate(17.6,219.6) rotate(270)" style="stroke:none; fill:black; font-family:Times-Roman; font-size:20.00pt; text-anchor:middle">
		<text>Cb</text>
	</g>
	<g transform="translate(319.3,471.9)" style="stroke:none; fill:black; font-family:Times-Roman; font-size:20.00pt; text-anchor:middle">
		<text>Cr</text>
	</g>
	<path  d='M74.6,28.2 L80.6,30.9 L76.8,25.5 M63.6,16.7 L80.6,30.9 M547.2,258.7 L564.8,262.1 L551.3,250.3 
		M63.6,16.7 L564.8,262.1 M507.5,380.7 L523.9,387.9 L513.3,373.4 M63.6,16.7 L523.9,387.9 M414.4,365.0 
		L430.1,373.7 L420.9,358.3 M63.6,16.7 L430.1,373.7 M105.4,34.4 L123.3,35.0 L108.1,25.5 M63.6,16.7 
		L123.3,35.0 M169.0,126.6 L184.6,135.4 L175.5,119.9 M63.6,16.7 L184.6,135.4  h0.01'/></g>
	<g id="gnuplot_plot_1" ><title>gnuplot_plot_1</title>
<g style="fill:none; color:red; stroke:currentColor; stroke-width:1.00; stroke-linecap:butt; stroke-linejoin:miter">
	<use xlink:href='#gpPt0' transform='translate(80.6,30.9) scale(4.50)'/>
	<use xlink:href='#gpPt0' transform='translate(564.8,262.1) scale(4.50)'/>
	<use xlink:href='#gpPt0' transform='translate(523.9,387.9) scale(4.50)'/>
	<use xlink:href='#gpPt0' transform='translate(430.1,373.7) scale(4.50)'/>
	<use xlink:href='#gpPt0' transform='translate(123.3,35.0) scale(4.50)'/>
	<use xlink:href='#gpPt0' transform='translate(184.6,135.4) scale(4.50)'/>
</g>
	</g>
<g style="fill:none; color:black; stroke:currentColor; stroke-width:1.00; stroke-linecap:butt; stroke-linejoin:miter">
	<path  d='M63.6,16.7 L63.6,422.4 L575.0,422.4 L575.0,16.7 L63.6,16.7 Z  h0.01'/></g>
</g>
</svg>

